{
    "id": "breakingnews",
    "name": "Breaking News",
    "description": "Shows a breaking news layer on dashboard.",
    "keywords": ["news", "dashboard", "popup"],
    "version": "1.0.3",
    "humhub": {
        "minVersion": "1.1"
    }
}