{
  "id": "FreiChat",
  "version": "1.0.3",
  "name": "FreiChat",
  "description": "A module to load FreiChat chat software",
  "humhub": {
    "minVersion": "1.5"
  },
  "keywords": ["chat", "freichat", "free", "saas"],
  "screenshots": ["assets/sc1.png", "assets/sc2.png", "assets/sc3.png"],
  "homepage": "https://freichat.com",
  "authors": [
    {
      "name": "Codologic",
      "email": "admin@codologic.com",
      "role": "Developer"
    }
  ]
}